^C:\REPOSITORY\TESTING01-ANNEYDEMO\WINDOWSFORMSAPPLICATION1\FORM1.RESX|C:\REPOSITORY\TESTING01-ANNEYDEMO\WINDOWSFORMSAPPLICATION1\PROPERTIES\RESOURCES.RESX
C:\REPOSITORY\TESTING01-ANNEYDEMO\WINDOWSFORMSAPPLICATION1\OBJ\X86\DEBUG\WINDOWSFORMSAPPLICATION1.FORM1.RESOURCES
C:\REPOSITORY\TESTING01-ANNEYDEMO\WINDOWSFORMSAPPLICATION1\OBJ\X86\DEBUG\WINDOWSFORMSAPPLICATION1.PROPERTIES.RESOURCES.RESOURCES
^D:\WORK\CMSGITREPOS\TESTING01-RENJITHDEMO\WINDOWSFORMSAPPLICATION1\FORM1.RESX|D:\WORK\CMSGITREPOS\TESTING01-RENJITHDEMO\WINDOWSFORMSAPPLICATION1\PROPERTIES\RESOURCES.RESX
D:\WORK\CMSGITREPOS\TESTING01-RENJITHDEMO\WINDOWSFORMSAPPLICATION1\OBJ\X86\DEBUG\WINDOWSFORMSAPPLICATION1.FORM1.RESOURCES
D:\WORK\CMSGITREPOS\TESTING01-RENJITHDEMO\WINDOWSFORMSAPPLICATION1\OBJ\X86\DEBUG\WINDOWSFORMSAPPLICATION1.PROPERTIES.RESOURCES.RESOURCES
^E:\WORK\GITBUCKET\TESTING01-GEORGEDEMO\WINDOWSFORMSAPPLICATION1\FORM1.RESX|E:\WORK\GITBUCKET\TESTING01-GEORGEDEMO\WINDOWSFORMSAPPLICATION1\PROPERTIES\RESOURCES.RESX
E:\WORK\GITBUCKET\TESTING01-GEORGEDEMO\WINDOWSFORMSAPPLICATION1\OBJ\X86\DEBUG\WINDOWSFORMSAPPLICATION1.FORM1.RESOURCES
E:\WORK\GITBUCKET\TESTING01-GEORGEDEMO\WINDOWSFORMSAPPLICATION1\OBJ\X86\DEBUG\WINDOWSFORMSAPPLICATION1.PROPERTIES.RESOURCES.RESOURCES
